<svg xmlns="http://www.w3.org/2000/svg" viewBox="0 0 600 582">
  <defs>
    <style>
      .cls-1 {
        fill: #e9e9e9;
        opacity: 0.28;
      }

      .cls-2 {
        fill: #6c63ff;
        opacity: 0.19;
      }
    </style>
  </defs>
  <g id="candidater_circle" transform="translate(48 54)">
    <ellipse id="Ellipse_11" data-name="Ellipse 11" class="cls-1" cx="171" cy="173" rx="171" ry="173" transform="translate(210 182)"/>
    <path id="Tracé_134" data-name="Tracé 134" class="cls-2" d="M204,0C316.666,0,408,96.035,408,214.5S316.666,429,204,429,0,332.965,0,214.5,91.334,0,204,0Z" transform="translate(-48 -54)"/>
  </g>
</svg>
