<svg xmlns="http://www.w3.org/2000/svg" viewBox="0 0 808 962">
  <defs>
    <style>
      .cls-1 {
        fill: #7138b2;
        opacity: 0.38;
      }

      .cls-2 {
        fill: #e9e9e9;
        opacity: 0.28;
      }
    </style>
  </defs>
  <g id="nous_trouver_circle" data-name="nous trouver_circle" transform="translate(260 399)">
    <ellipse id="Ellipse_8" data-name="Ellipse 8" class="cls-1" cx="328" cy="338" rx="328" ry="338" transform="translate(-260 -399)"/>
    <ellipse id="Ellipse_9" data-name="Ellipse 9" class="cls-2" cx="212" cy="217" rx="212" ry="217" transform="translate(124 129)"/>
  </g>
</svg>
