<svg xmlns="http://www.w3.org/2000/svg" viewBox="0 0 659 679">
  <defs>
    <style>
      .cls-1 {
        fill: #e9e9e9;
        opacity: 0.28;
      }

      .cls-2 {
        fill: #3f4bf5;
        opacity: 0.33;
      }
    </style>
  </defs>
  <g id="temoignage_circle" transform="translate(-1710 -200)">
    <ellipse id="Ellipse_6" data-name="Ellipse 6" class="cls-1" cx="212" cy="217" rx="212" ry="217" transform="translate(1710 200)"/>
    <ellipse id="Ellipse_7" data-name="Ellipse 7" class="cls-2" cx="204" cy="214.5" rx="204" ry="214.5" transform="translate(1961 450)"/>
  </g>
</svg>
